name,count
Utah,424
Massachusetts,72
New Jersey,67
California,65
Texas,65
New York,57
Virginia,53
Missouri,31
Nevada,28
"D.C.",28
Pennsylvania,24
Illinois,23
North Carolina,22
Colorado,19
Iowa,19
Washington,19
Florida,16
Maryland,15
Georgia,13
Arizona,9
Indiana,8
Michigan,8
Wisconsin,8
Oregon,7
South Carolina,7
Idaho,6
Minnesota,6
Connecticut,4
Mississippi,4
Nebraska,4
Ohio,4
Alabama,3
Kansas,3
Kentucky,3
Tennessee,3
Delaware,2
New Hampshire,2
Oklahoma,2
Arkansas,1
Hawaii,1
Montana,1
New Mexico,1
Rhode Island,1
