name,count
California,1040
Pennsylvania,713
New York,674
Wisconsin,619
Utah,444
Illinois,387
North Carolina,353
Missouri,329
Texas,280
Massachusetts,239
New Jersey,238
Colorado,226
South Carolina,206
Georgia,189
Michigan,189
Virginia,184
Washington,166
Florida,163
"D.C.",137
Maryland,95
Ohio,89
Tennessee,85
Indiana,70
Arizona,61
Nevada,59
Minnesota,56
Oregon,54
Kansas,37
Kentucky,34
Louisiana,31
Connecticut,29
Mississippi,27
Delaware,26
Iowa,25
New Hampshire,20
Hawaii,18
New Mexico,17
Nebraska,14
Montana,9
Alabama,8
Oklahoma,8
Maine,5
Rhode Island,5
West Virginia,5
Arkansas,3
Vermont,3
Idaho,2
Wyoming,2
South Dakota,1
